// Jest Snapshot v1, https://goo.gl/fbAQLP

exports[`index page renders OK 1`] = `
.c3 {
  padding: 0px !important;
  padding: 0.5rem;
  border-radius: 0.5rem;
  --tw-text-opacity: 1;
  color: rgba(0,0,0,var(--tw-text-opacity));
  font-weight: 700;
  --tw-shadow: 0 1px 2px 0 rgba(0,0,0,0.05);
  box-shadow: var(--tw-ring-offset-shadow,0 0 #0000),var(--tw-ring-shadow,0 0 #0000),var(--tw-shadow);
  border-width: 1px;
  margin: 0.5rem;
  --tw-bg-opacity: 1;
  background-color: rgba(52,211,153,var(--tw-bg-opacity));
  --tw-border-opacity: 1;
  border-color: rgba(4,120,87,var(--tw-border-opacity));
}

.c3:hover {
  --tw-text-opacity: 1;
  color: rgba(255,255,255,var(--tw-text-opacity));
  --tw-shadow: 0 4px 6px -1px rgba(0,0,0,0.1),0 2px 4px -1px rgba(0,0,0,0.06);
  box-shadow: var(--tw-ring-offset-shadow,0 0 #0000),var(--tw-ring-shadow,0 0 #0000),var(--tw-shadow);
}

.c3:hover {
  --tw-bg-opacity: 1;
  background-color: rgba(4,120,87,var(--tw-bg-opacity));
  --tw-border-opacity: 1;
  border-color: rgba(52,211,153,var(--tw-border-opacity));
}

.c3 a {
  display: block;
  margin: 0px;
  padding: 0.5rem;
}

.c4 {
  padding: 0.5rem;
  border-radius: 0.5rem;
  --tw-text-opacity: 1;
  color: rgba(0,0,0,var(--tw-text-opacity));
  font-weight: 700;
  --tw-shadow: 0 1px 2px 0 rgba(0,0,0,0.05);
  box-shadow: var(--tw-ring-offset-shadow,0 0 #0000),var(--tw-ring-shadow,0 0 #0000),var(--tw-shadow);
  border-width: 1px;
  margin: 0.5rem;
  --tw-bg-opacity: 1;
  background-color: rgba(52,211,153,var(--tw-bg-opacity));
  --tw-border-opacity: 1;
  border-color: rgba(4,120,87,var(--tw-border-opacity));
  --tw-bg-opacity: 1;
  background-color: rgba(209,213,219,var(--tw-bg-opacity));
  --tw-border-opacity: 1;
  border-color: rgba(107,114,128,var(--tw-border-opacity));
  cursor: not-allowed;
}

.c4:hover {
  --tw-text-opacity: 1;
  color: rgba(255,255,255,var(--tw-text-opacity));
  --tw-shadow: 0 4px 6px -1px rgba(0,0,0,0.1),0 2px 4px -1px rgba(0,0,0,0.06);
  box-shadow: var(--tw-ring-offset-shadow,0 0 #0000),var(--tw-ring-shadow,0 0 #0000),var(--tw-shadow);
}

.c4:hover {
  --tw-bg-opacity: 1;
  background-color: rgba(4,120,87,var(--tw-bg-opacity));
  --tw-border-opacity: 1;
  border-color: rgba(52,211,153,var(--tw-border-opacity));
}

.c4 a {
  display: block;
  margin: 0px;
  padding: 0.5rem;
}

.c4:hover {
  --tw-bg-opacity: 1;
  background-color: rgba(209,213,219,var(--tw-bg-opacity));
  --tw-border-opacity: 1;
  border-color: rgba(107,114,128,var(--tw-border-opacity));
  --tw-text-opacity: 1;
  color: rgba(0,0,0,var(--tw-text-opacity));
}

.c2 {
  font-size: 3rem;
  line-height: 1.375;
  font-weight: 700;
  margin-bottom: 2rem;
}

.c0 {
  width: 100vw;
  height: 100vh;
  display: -webkit-box;
  display: -webkit-flex;
  display: -ms-flexbox;
  display: flex;
  -webkit-box-pack: center;
  -webkit-justify-content: center;
  -ms-flex-pack: center;
  justify-content: center;
  -webkit-align-items: center;
  -webkit-box-align: center;
  -ms-flex-align: center;
  align-items: center;
}

.c1 {
  text-align: center;
  display: -webkit-box;
  display: -webkit-flex;
  display: -ms-flexbox;
  display: flex;
  -webkit-flex-direction: column;
  -ms-flex-direction: column;
  flex-direction: column;
  -webkit-align-items: center;
  -webkit-box-align: center;
  -ms-flex-align: center;
  align-items: center;
  max-width: 1200px;
}

<div>
  <div
    class="c0"
  >
    <div
      class="c1"
    >
      <h1
        class="c2"
      >
        The Indescribable, Unforgettable, Unstoppable, Uncontainable and Thoroughly, Intrinsically, Very Very Remarkable Disaster Wheel
      </h1>
      <button
        class="c3"
      >
        <a
          href="/spin"
        >
          spin (1)
        </a>
      </button>
      <button
        class="c4"
        disabled=""
      >
        spin (3)
      </button>
      <button
        class="c4"
        disabled=""
      >
        8 Player Smash
      </button>
    </div>
  </div>
</div>
`;
